{
  "ql_group": {
  "burn_title": "",
  "burn_body": "",
	"ambulance_title": "",
  "ambulance_body": "",
	"airmed_title": "",
  "airmed_body": "",
	"volunteer_title": "",
  "volunteer_body": ""
  }
}
