{
  "resources_links": [
    {
      "links_text": "Boise County Sheriff",
      "links_url": "http://www.boisecounty.us/"
    },
    {
      "links_text": "Incident Information System",
      "links_url": "http://www.inciweb.org/"
    },
    {
      "links_text": "Idaho Burn Permits",
      "links_url": "http://burnpermits.idaho.gov/"
    }
  ],
  "resources_documents": [
    {
      "docs_text": "2025-02-11 Regular Meeting Minutes",
      "docs_url": "/media/2-11-2025-regular-meeting-minutes.docx.pdf"
    },
    {
      "docs_text": "2025-03-11 Regular Meeting Agenda",
      "docs_url": "/media/3-11-2025-regular-meeting-agenda.docx.pdf"
    },
    {
      "docs_text": "2025-01-14 Regular Meeting Agenda",
      "docs_url": "/media/1-14-2025-regular-meeting-agenda.pdf"
    },
    {
      "docs_text": "2024-06-11 Regular Meeting Agenda",
      "docs_url": "/media/2024-06-11-regular-meeting-agenda.pdf"
    },
    {
      "docs_text": "2024-04-03 Regular Meeting Agenda",
      "docs_url": "/media/2024-04-03-regular-meeting-agenda.pdf"
    }
  ],
  "resources_public_info": [
    {
      "info_text": "Volunteer Info",
      "info_url": "/media/introduction-packet.pdf"
    }
  ],
  "resource_body": "#### BOISE COUNTY SHERIFF’S OFFICE\n\n(208) 392-4411 EMERGENCY 911\n\n#### BOISE COUNTY EMERGENCY ALERTS\n\n<https://public.alertsense.com/SignUp/?regionid=1163>\n\n#### BOISE COUNTY INDIGENT SERVICES\n\n<https://www.boisecounty.us/services/indigent/>\n\n#### VETERANS:\n\nFree transportation for Boise County Veterans to and from their VA medical appointments. Door-to-door pick-up. Call (208)371-3244 or (208)392-9934 to arrange your transportation needs. Serving Veterans in all of Boise County.\n\n#### ELDER ABUSE\n\n1-208-898-7060 or 1-844-850-2883\n\n<https://aging.idaho.gov/stay-safe/adult-protection/>\n\n#### HOSPICE CARE\n\n<https://www.careforidaho.org/list04_Idaho_hospice_care.htm>\n\n#### FOOD BANK\n\n<http://www.ccgardenvalley.com/food-bank>\n\n#### SUICIDE HOTLINE\n\nCall or Text – 988\n\n<https://idahocrisis.org/> \n\n#### DOMESTIC VIOLENCE\n\nIdaho Domestic Violence Hotline at 1-800-669-3176\n\nIDAHO 2-1-1 Care Line or dial 800-926-2588\n\n<https://healthandwelfare.idaho.gov/services-programs/211>\n\n#### DRUG OVERDOSE PREVENTION\n\n<https://boisecounty.us/wp-content/uploads/2019/12/Lock-Monitor-Dispose_Web-English.pdf>"
}
